{
  "listaDeEquipos": [
    {
      "nombre": "Independiente"
    },
    {
      "nombre": "Racing"
    },
    {
      "nombre": "Boca"
    },
    {
      "nombre": "River"
    },
    {
      "nombre": "Huracan"
    },
    {
      "nombre": "San Lorenzo"
    }
  ]
}